,date,city,rent,product
0,2020-01-01,Edirne,4,1829
1,2020-01-02,Şırnak,6,1823
2,2020-01-03,Kahramanmaraş,11,1811
3,2020-01-04,Kütahya,16,1038
4,2020-01-05,Sinop,12,1260
5,2020-01-06,Tunceli,14,1508
6,2020-01-07,Kilis,9,1571
7,2020-01-08,Bursa,13,1540
8,2020-01-09,Kilis,5,1159
9,2020-01-10,Sinop,17,1365
10,2020-01-11,Bingöl,4,1673
11,2020-01-12,Sivas,4,1518
12,2020-01-13,Niğde,9,1524
13,2020-01-14,Batman,17,1581
14,2020-01-15,Van,2,1295
15,2020-01-16,Batman,17,1480
16,2020-01-17,Karaman,16,1825
17,2020-01-18,Sivas,10,1190
18,2020-01-19,Çorum,17,1491
19,2020-01-20,Adıyaman,16,1748
20,2020-01-21,Hakkari,8,1904
21,2020-01-22,Balıkesir,12,1619
22,2020-01-23,Diyarbakır,1,1617
23,2020-01-24,Batman,4,1402
24,2020-01-25,Trabzon,13,1039
25,2020-01-26,Tekirdağ,17,1007
26,2020-01-27,Erzincan,12,1576
27,2020-01-28,Kırıkkale,2,1016
28,2020-01-29,Kırklareli,17,1981
29,2020-01-30,Samsun,1,1137
30,2020-01-31,Gümüşhane,5,1803
31,2020-02-01,Van,13,1250
32,2020-02-02,Kırşehir,7,1523
33,2020-02-03,Sinop,5,1522
34,2020-02-04,Yalova,3,1081
35,2020-02-05,Yozgat,3,1668
36,2020-02-06,Gümüşhane,14,1209
37,2020-02-07,Amasya,4,1815
38,2020-02-08,Gaziantep,3,1340
39,2020-02-09,Kilis,3,1262
40,2020-02-10,Muş,11,1301
41,2020-02-11,Osmaniye,5,1426
42,2020-02-12,Kırıkkale,14,1449
43,2020-02-13,Tunceli,3,1932
44,2020-02-14,Yalova,11,1566
45,2020-02-15,Kastamonu,1,1057
46,2020-02-16,Afyon,10,1963
47,2020-02-17,Uşak,5,1185
48,2020-02-18,Şanlıurfa,2,1437
49,2020-02-19,Artvin,9,1088
50,2020-02-20,Kahramanmaraş,1,1895
51,2020-02-21,Sakarya,14,1872
52,2020-02-22,Konya,6,1298
53,2020-02-23,Bartın,1,1640
54,2020-02-24,Denizli,15,1419
55,2020-02-25,Konya,2,1692
56,2020-02-26,Kırklareli,12,1414
57,2020-02-27,İzmir,14,1030
58,2020-02-28,Kilis,5,1390
59,2020-02-29,Şanlıurfa,12,1370
60,2020-03-01,Balıkesir,5,1442
61,2020-03-02,Manisa,13,1067
62,2020-03-03,Amasya,14,1855
63,2020-03-04,Kars,3,1012
64,2020-03-05,Burdur,13,1981
65,2020-03-06,Bingöl,10,1665
66,2020-03-07,Gaziantep,8,1400
67,2020-03-08,Balıkesir,10,1195
68,2020-03-09,Bursa,7,1779
69,2020-03-10,İstanbul,1,1932
70,2020-03-11,Adıyaman,12,1304
71,2020-03-12,Kahramanmaraş,4,1937
72,2020-03-13,Artvin,5,1119
73,2020-03-14,Kütahya,11,1858
74,2020-03-15,Şırnak,6,1015
75,2020-03-16,İzmir,3,1626
76,2020-03-17,Antalya,4,1935
77,2020-03-18,Malatya,12,1327
78,2020-03-19,Siirt,16,1328
79,2020-03-20,İstanbul,7,1404
80,2020-03-21,Giresun,13,1688
81,2020-03-22,Düzce,11,1051
82,2020-03-23,Zonguldak,12,1691
83,2020-03-24,Rize,16,1219
84,2020-03-25,Rize,11,1909
85,2020-03-26,Adana,6,1045
86,2020-03-27,Çorum,12,1489
87,2020-03-28,Zonguldak,5,1458
88,2020-03-29,Nevşehir,3,1861
89,2020-03-30,Ardahan,3,1059
90,2020-03-31,Yozgat,15,1739
91,2020-04-01,Eskişehir,5,1509
92,2020-04-02,Ordu,9,1941
93,2020-04-03,Konya,12,1831
94,2020-04-04,Kilis,4,1386
95,2020-04-05,Antalya,1,1918
96,2020-04-06,Erzurum,8,1196
97,2020-04-07,Antalya,4,1413
98,2020-04-08,Gaziantep,7,1684
99,2020-04-09,Nevşehir,3,1635
100,2020-04-10,Ankara,10,1932
101,2020-04-11,Kastamonu,4,1033
102,2020-04-12,Elazığ,7,1558
103,2020-04-13,Bursa,1,1896
104,2020-04-14,Bilecik,14,1618
105,2020-04-15,Şanlıurfa,3,1874
106,2020-04-16,Düzce,3,1512
107,2020-04-17,Konya,7,1752
108,2020-04-18,Elazığ,1,1241
109,2020-04-19,Mardin,15,1734
110,2020-04-20,Erzincan,9,1922
111,2020-04-21,Batman,1,1675
112,2020-04-22,Bursa,9,1178
113,2020-04-23,Aydın,3,1073
114,2020-04-24,Adana,12,1780
115,2020-04-25,Tekirdağ,11,1661
116,2020-04-26,Isparta,15,1685
117,2020-04-27,Erzincan,2,1106
118,2020-04-28,Tekirdağ,8,1231
119,2020-04-29,Ağrı,6,1648
120,2020-04-30,Van,16,1926
121,2020-05-01,Kütahya,14,1126
122,2020-05-02,Kars,5,1508
123,2020-05-03,Erzurum,9,1507
124,2020-05-04,Van,3,1121
125,2020-05-05,Yozgat,16,1819
126,2020-05-06,Kars,12,1796
127,2020-05-07,Niğde,11,1281
128,2020-05-08,Karabük,13,1562
129,2020-05-09,Aydın,8,1928
130,2020-05-10,Aydın,5,1684
131,2020-05-11,Elazığ,15,1513
132,2020-05-12,Afyon,3,1040
133,2020-05-13,Bursa,11,1710
134,2020-05-14,Sinop,3,1523
135,2020-05-15,Düzce,4,1354
136,2020-05-16,Malatya,13,1415
137,2020-05-17,Balıkesir,3,1385
138,2020-05-18,Rize,14,1075
139,2020-05-19,Manisa,8,1864
140,2020-05-20,Balıkesir,4,1841
141,2020-05-21,Tokat,15,1008
142,2020-05-22,Erzincan,11,1283
143,2020-05-23,Kahramanmaraş,3,1794
144,2020-05-24,Muğla,10,1720
145,2020-05-25,Kırıkkale,8,1743
146,2020-05-26,Bartın,13,1071
147,2020-05-27,Tunceli,10,1664
148,2020-05-28,Karabük,16,1369
149,2020-05-29,Giresun,1,1357
150,2020-05-30,Bursa,1,1385
151,2020-05-31,Sakarya,4,1804
152,2020-06-01,Rize,14,1818
153,2020-06-02,Rize,14,1309
154,2020-06-03,Kilis,3,1120
155,2020-06-04,Trabzon,2,1496
156,2020-06-05,Elazığ,13,1213
157,2020-06-06,İçel (Mersin),6,1071
158,2020-06-07,Karaman,13,1971
159,2020-06-08,Eskişehir,2,1170
160,2020-06-09,İzmir,14,1528
161,2020-06-10,Düzce,13,1117
162,2020-06-11,Ordu,17,1781
163,2020-06-12,Aydın,5,1514
164,2020-06-13,Yozgat,11,1397
165,2020-06-14,Karaman,1,1321
166,2020-06-15,Antalya,6,1007
167,2020-06-16,İçel (Mersin),10,1091
168,2020-06-17,Bingöl,3,1254
169,2020-06-18,Kahramanmaraş,9,1856
170,2020-06-19,Balıkesir,7,1960
171,2020-06-20,Gümüşhane,7,1701
172,2020-06-21,Uşak,2,1678
173,2020-06-22,Yozgat,3,1331
174,2020-06-23,Muğla,3,1126
175,2020-06-24,Gaziantep,2,1754
176,2020-06-25,Bitlis,10,1886
177,2020-06-26,Elazığ,10,1900
178,2020-06-27,Yozgat,4,1449
179,2020-06-28,Edirne,6,1114
180,2020-06-29,Tekirdağ,7,1150
181,2020-06-30,Giresun,8,1537
182,2020-07-01,Kastamonu,16,1126
183,2020-07-02,Bartın,6,1694
184,2020-07-03,Mardin,1,1506
185,2020-07-04,Gümüşhane,7,1683
186,2020-07-05,Burdur,8,1458
187,2020-07-06,Kastamonu,16,1416
188,2020-07-07,Adana,17,1546
189,2020-07-08,Balıkesir,5,1754
190,2020-07-09,Ordu,2,1179
191,2020-07-10,Bartın,4,1779
192,2020-07-11,Uşak,1,1895
193,2020-07-12,Bolu,16,1215
194,2020-07-13,Erzincan,10,1206
195,2020-07-14,Sakarya,11,1110
196,2020-07-15,Adıyaman,15,1970
197,2020-07-16,Karabük,6,1951
198,2020-07-17,Sakarya,12,1519
199,2020-07-18,Muş,8,1394
200,2020-07-19,Denizli,15,1606
201,2020-07-20,Diyarbakır,3,1873
202,2020-07-21,Kırklareli,9,1549
203,2020-07-22,Kırklareli,3,1146
204,2020-07-23,Giresun,3,1349
205,2020-07-24,Karaman,4,1669
206,2020-07-25,Sinop,6,1872
207,2020-07-26,Diyarbakır,9,1983
208,2020-07-27,Erzurum,10,1399
209,2020-07-28,Elazığ,3,1440
210,2020-07-29,Kayseri,15,1348
211,2020-07-30,İçel (Mersin),11,1500
212,2020-07-31,Batman,16,1103
213,2020-08-01,Tekirdağ,11,1321
214,2020-08-02,Erzincan,17,1826
215,2020-08-03,Konya,11,1035
216,2020-08-04,Kastamonu,10,1244
217,2020-08-05,Sinop,13,1658
218,2020-08-06,Kütahya,8,1550
219,2020-08-07,Gaziantep,16,1670
220,2020-08-08,Çanakkale,5,1796
221,2020-08-09,Artvin,7,1814
222,2020-08-10,Karaman,16,1355
223,2020-08-11,Balıkesir,11,1140
224,2020-08-12,Manisa,16,1480
225,2020-08-13,Yalova,9,1517
226,2020-08-14,Gümüşhane,7,1924
227,2020-08-15,Isparta,11,1751
228,2020-08-16,Tekirdağ,10,1399
229,2020-08-17,Şırnak,11,1154
230,2020-08-18,Balıkesir,12,1407
231,2020-08-19,Ardahan,8,1182
232,2020-08-20,Erzincan,8,1266
233,2020-08-21,Elazığ,16,1434
234,2020-08-22,Isparta,10,1770
235,2020-08-23,Afyon,8,1441
236,2020-08-24,Kilis,12,1703
237,2020-08-25,Trabzon,1,1229
238,2020-08-26,Yalova,11,1082
239,2020-08-27,Mardin,6,1409
240,2020-08-28,Kırıkkale,16,1722
241,2020-08-29,Elazığ,7,1348
242,2020-08-30,Denizli,5,1261
243,2020-08-31,Afyon,13,1291
244,2020-09-01,Nevşehir,2,1789
245,2020-09-02,Balıkesir,17,1788
246,2020-09-03,Şırnak,12,1080
247,2020-09-04,Sinop,6,1136
248,2020-09-05,Bolu,4,1676
249,2020-09-06,Şırnak,2,1429
250,2020-09-07,Giresun,14,1933
251,2020-09-08,Bingöl,16,1686
252,2020-09-09,Kayseri,10,1786
253,2020-09-10,Tekirdağ,8,1916
254,2020-09-11,Kırklareli,4,1316
255,2020-09-12,Balıkesir,7,1679
256,2020-09-13,Tokat,8,1989
257,2020-09-14,Kars,8,1516
258,2020-09-15,Uşak,7,1244
259,2020-09-16,Bingöl,1,1272
260,2020-09-17,Iğdır,8,1811
261,2020-09-18,Bayburt,4,1548
262,2020-09-19,Elazığ,2,1726
263,2020-09-20,Bolu,17,1074
264,2020-09-21,Ordu,9,1228
265,2020-09-22,Bayburt,1,1894
266,2020-09-23,Kütahya,13,1100
267,2020-09-24,Elazığ,2,1438
268,2020-09-25,Bilecik,5,1345
269,2020-09-26,Kastamonu,12,1703
270,2020-09-27,Balıkesir,11,1051
271,2020-09-28,Eskişehir,7,1155
272,2020-09-29,Düzce,17,1552
273,2020-09-30,Kars,4,1878
274,2020-10-01,Bitlis,12,1714
275,2020-10-02,Düzce,17,1405
276,2020-10-03,Malatya,7,1797
277,2020-10-04,Bitlis,15,1790
278,2020-10-05,Şırnak,14,1767
279,2020-10-06,Balıkesir,8,1776
280,2020-10-07,Giresun,2,1009
281,2020-10-08,Hakkari,12,1650
282,2020-10-09,Bayburt,12,1273
283,2020-10-10,Şırnak,16,1241
284,2020-10-11,Ordu,4,1923
285,2020-10-12,Van,6,1797
286,2020-10-13,Hakkari,12,1412
287,2020-10-14,Aydın,4,1344
288,2020-10-15,Isparta,2,1240
289,2020-10-16,Karaman,11,1053
290,2020-10-17,Samsun,2,1794
291,2020-10-18,Bartın,13,1028
292,2020-10-19,Muş,14,1270
293,2020-10-20,Kayseri,4,1554
294,2020-10-21,Rize,16,1050
295,2020-10-22,Trabzon,11,1635
296,2020-10-23,Bayburt,3,1532
297,2020-10-24,Sinop,14,1053
298,2020-10-25,Ağrı,13,1587
299,2020-10-26,Malatya,7,1217
300,2020-10-27,Düzce,17,1135
301,2020-10-28,Yozgat,1,1692
302,2020-10-29,Hatay,7,1462
303,2020-10-30,Şanlıurfa,9,1042
304,2020-10-31,Kırşehir,17,1141
305,2020-11-01,Hakkari,11,1824
306,2020-11-02,Osmaniye,2,1338
307,2020-11-03,Erzurum,4,1657
308,2020-11-04,Bolu,8,1474
309,2020-11-05,Ağrı,5,1529
310,2020-11-06,Antalya,9,1082
311,2020-11-07,Kocaeli,1,1475
312,2020-11-08,Manisa,12,1525
313,2020-11-09,Sinop,10,1228
314,2020-11-10,Manisa,13,1525
315,2020-11-11,Gümüşhane,16,1061
316,2020-11-12,Erzincan,16,1018
317,2020-11-13,Batman,8,1246
318,2020-11-14,Ağrı,3,1511
319,2020-11-15,Muğla,4,1401
320,2020-11-16,Antalya,3,1941
321,2020-11-17,Tekirdağ,11,1256
322,2020-11-18,Osmaniye,2,1680
323,2020-11-19,Malatya,17,1751
324,2020-11-20,Kars,16,1662
325,2020-11-21,Samsun,10,1289
326,2020-11-22,Çorum,12,1281
327,2020-11-23,Kırıkkale,6,1580
328,2020-11-24,Hatay,6,1634
329,2020-11-25,Gaziantep,12,1142
330,2020-11-26,Siirt,5,1009
331,2020-11-27,Çankırı,10,1550
332,2020-11-28,Yozgat,1,1879
333,2020-11-29,Niğde,13,1455
334,2020-11-30,Zonguldak,3,1192
335,2020-12-01,İzmir,11,1752
336,2020-12-02,Afyon,4,1817
337,2020-12-03,Karabük,14,1634
338,2020-12-04,Balıkesir,3,1647
339,2020-12-05,Aydın,2,1067
340,2020-12-06,Osmaniye,9,1667
341,2020-12-07,Gümüşhane,17,1762
342,2020-12-08,Bayburt,12,1011
343,2020-12-09,Trabzon,3,1448
344,2020-12-10,Sinop,7,1814
345,2020-12-11,Gaziantep,17,1144
346,2020-12-12,Kilis,17,1433
347,2020-12-13,Şırnak,10,1151
348,2020-12-14,Ardahan,4,1447
349,2020-12-15,Trabzon,14,1044
350,2020-12-16,Tokat,1,1691
351,2020-12-17,Bartın,10,1480
352,2020-12-18,Yozgat,17,1250
353,2020-12-19,Çanakkale,12,1891
354,2020-12-20,Rize,13,1780
355,2020-12-21,Rize,3,1270
356,2020-12-22,Aydın,1,1510
357,2020-12-23,Kırklareli,5,1105
358,2020-12-24,Trabzon,16,1874
359,2020-12-25,Manisa,8,1677
360,2020-12-26,Malatya,7,1397
361,2020-12-27,Düzce,16,1230
362,2020-12-28,İçel (Mersin),10,1405
363,2020-12-29,Çorum,16,1869
364,2020-12-30,Hatay,2,1770
